%YAML 1.1
%TAG !u! tag:unity3d.com,2011:
--- !u!114 &11400000
MonoBehaviour:
  m_ObjectHideFlags: 0
  m_CorrespondingSourceObject: {fileID: 0}
  m_PrefabInstance: {fileID: 0}
  m_PrefabAsset: {fileID: 0}
  m_GameObject: {fileID: 0}
  m_Enabled: 1
  m_EditorHideFlags: 0
  m_Script: {fileID: 11500000, guid: 19eff956ebe590c4c808037a7599db59, type: 3}
  m_Name: Fast&Furious
  m_EditorClassIdentifier: 
  name: Faster
  id: 0
  image: {fileID: 21300000, guid: 9aecda309a61dc5419cc9a74c1666d42, type: 3}
